1.149999999999999911e+00,1.787739403511872174e-02
1.250000000000000000e+00,1.886612917188572672e-02
1.350000000000000089e+00,1.044618127197949053e-01
1.449999999999999956e+00,2.560799402660955681e-02
1.550000000000000044e+00,2.323911747794128735e-02
1.649999999999999911e+00,3.720030544507830356e-02
1.750000000000000000e+00,9.882731707377616637e-01
1.850000000000000089e+00,1.626234924976953100e-01
1.949999999999999956e+00,9.045843768626599460e-03
2.049999999999999822e+00,2.131792477150749182e-02
2.149999999999999911e+00,9.092609077891014580e-03
2.250000000000000000e+00,7.663887788827358771e-03
2.350000000000000089e+00,1.453570629788352581e-02
2.450000000000000178e+00,6.802016874279480547e-03
2.549999999999999822e+00,8.910535512638177377e-03
2.649999999999999911e+00,8.083884104365203493e-03
2.750000000000000000e+00,9.225907190874840444e-03
2.850000000000000089e+00,8.526741350747418097e-03
2.950000000000000178e+00,9.347426153760080014e-03
3.049999999999999822e+00,7.869874154333615993e-03
3.149999999999999911e+00,1.001323237360380106e-02
3.250000000000000000e+00,9.626445629085470315e-03
3.350000000000000089e+00,1.002598350554972061e-02
3.450000000000000178e+00,1.079964961238044988e-02
3.549999999999999822e+00,1.314792531148946224e-02
3.649999999999999911e+00,1.199820241280443248e-02
3.750000000000000000e+00,1.350472572037749591e-02
3.850000000000000089e+00,1.590731796508342705e-02
3.950000000000000178e+00,1.373304756144486626e-02
4.049999999999999822e+00,1.560653522264089654e-02
4.150000000000000355e+00,1.534043677017327828e-02
4.250000000000000000e+00,1.599698062891239878e-02
4.349999999999999645e+00,1.671474995696498739e-02
4.450000000000000178e+00,1.707145336614868808e-02
4.549999999999999822e+00,2.011275175484595820e-02
4.650000000000000355e+00,2.168492760667608057e-02
4.750000000000000000e+00,1.886186383769266825e-02
4.849999999999999645e+00,1.973480703405321168e-02
4.950000000000000178e+00,2.076015885445683939e-02
5.049999999999999822e+00,2.162943900715395135e-02
5.150000000000000355e+00,2.139734625264090584e-02
5.250000000000000000e+00,1.906902109053241340e-02
5.349999999999999645e+00,2.013442163389887740e-02
5.450000000000000178e+00,2.121598152449726687e-02
5.549999999999999822e+00,2.348527231944744914e-02
5.650000000000000355e+00,2.371740562660632975e-02
5.750000000000000000e+00,2.339345990834071701e-02
5.849999999999999645e+00,2.781741743440264286e-02
5.950000000000000178e+00,2.536196915620535924e-02
6.049999999999999822e+00,2.670268996049820695e-02
6.150000000000000355e+00,2.543003516458766308e-02
6.250000000000000000e+00,3.050360940766448647e-02
6.349999999999999645e+00,2.761270235982513782e-02
6.450000000000000178e+00,2.833405362624948423e-02
6.549999999999999822e+00,2.478276561732695518e-02
6.650000000000000355e+00,2.798260563285659419e-02
6.750000000000000000e+00,2.890213895795518823e-02
6.849999999999999645e+00,2.613510980775283696e-02
6.950000000000000178e+00,3.000451170458369454e-02
7.049999999999999822e+00,2.822295915117796136e-02
7.150000000000000355e+00,2.890371567538054312e-02
7.250000000000000000e+00,2.702844917915057932e-02
7.349999999999999645e+00,8.008607117059858560e-02
7.450000000000000178e+00,2.975296354336097113e-02
7.549999999999999822e+00,2.615730514208901292e-02
7.650000000000000355e+00,3.042118783936241175e-02
7.750000000000000000e+00,3.261771432640234863e-02
7.849999999999999645e+00,2.870016068517760102e-02
7.950000000000000178e+00,2.648143712829652968e-02
8.050000000000000711e+00,2.946812235666292426e-02
8.150000000000000355e+00,2.824515448551413385e-02
8.250000000000000000e+00,2.703427089052324456e-02
8.349999999999999645e+00,1.000000000000000000e+00
8.449999999999999289e+00,2.712650535533707788e-02
8.550000000000000711e+00,2.817117032857578002e-02
8.650000000000000355e+00,2.771468408838098640e-02
8.750000000000000000e+00,3.721370631747335234e-02
8.849999999999999645e+00,3.074065987654620719e-02
8.949999999999999289e+00,2.740025570022764159e-02
9.050000000000000711e+00,2.783305947651263518e-02
9.150000000000000355e+00,2.714894730396652522e-02
9.250000000000000000e+00,2.513881558173319472e-02
9.349999999999999645e+00,2.688605483731137946e-02
9.449999999999999289e+00,3.023756350615862745e-02
9.550000000000000711e+00,5.170778180864719908e-02
9.650000000000000355e+00,4.457423471594283426e-01
9.750000000000000000e+00,3.039441173082461922e-02
9.849999999999999645e+00,5.418750949094315594e-02
9.949999999999999289e+00,2.274519204717229126e-01
1.005000000000000071e+01,2.774057863711617070e-02
1.015000000000000036e+01,3.375519446824375158e-02
1.025000000000000000e+01,1.658459366085683270e-02
1.034999999999999964e+01,1.889200362008578923e-02
1.044999999999999929e+01,1.856647073940376202e-02
1.055000000000000071e+01,1.723844461999834293e-02
1.065000000000000036e+01,1.782292413864323966e-02
1.075000000000000000e+01,1.990189528760720125e-02
1.084999999999999964e+01,1.757877440621852944e-02
1.094999999999999929e+01,1.773830053418530561e-02
1.105000000000000071e+01,1.444182141900904326e-02
1.115000000000000036e+01,1.760067532796237913e-02
1.125000000000000000e+01,8.009159525725582929e-02
1.134999999999999964e+01,1.649119880483880876e-02
1.144999999999999929e+01,1.830321386465316030e-02
1.155000000000000071e+01,1.792276000323353782e-02
1.165000000000000036e+01,2.392036631983029266e-02
1.175000000000000000e+01,1.518166880537055556e-02
1.184999999999999964e+01,1.394946839951148772e-02
1.194999999999999929e+01,1.651709335357399305e-02
1.205000000000000071e+01,1.706740541433697869e-02
1.215000000000000036e+01,1.417177713784914875e-02
1.225000000000000000e+01,1.350591447094693504e-02
1.234999999999999964e+01,1.358359840480524196e-02
1.244999999999999929e+01,1.251821813776170071e-02
1.255000000000000071e+01,1.411998775272602265e-02
1.265000000000000036e+01,1.561447967069784330e-02
1.275000000000000000e+01,1.345042587142479887e-02
1.284999999999999964e+01,1.430494967122959184e-02
1.294999999999999929e+01,1.424946107170745567e-02
1.305000000000000071e+01,1.297322433742516268e-02
1.315000000000000036e+01,1.403860460446870566e-02
1.325000000000000000e+01,1.478585041962823809e-02
1.334999999999999964e+01,1.411628853832701605e-02
1.344999999999999929e+01,1.518166880537055556e-02
1.355000000000000071e+01,1.444182141900904152e-02
1.365000000000000036e+01,1.318408080466391442e-02
1.375000000000000000e+01,1.371677093818568505e-02
1.384999999999999964e+01,1.278456320452258516e-02
1.394999999999999929e+01,1.171918293747904218e-02
1.405000000000000071e+01,1.218676654600267528e-02
1.415000000000000036e+01,1.409409315604871413e-02
1.425000000000000000e+01,1.131966533733771464e-02
1.434999999999999964e+01,1.137515393685984734e-02
1.444999999999999929e+01,1.358359840480524196e-02
1.455000000000000071e+01,1.531484133875099865e-02
1.465000000000000036e+01,1.305090827128346960e-02
1.475000000000000000e+01,1.198922721863893669e-02
1.484999999999999964e+01,1.172658136627706231e-02
1.494999999999999929e+01,1.584753147227277448e-02
1.505000000000000071e+01,1.305830670008148973e-02
1.515000000000000036e+01,1.331725333804435751e-02
1.525000000000000000e+01,1.385364268596513820e-02
1.534999999999999964e+01,1.337274193756649195e-02
1.544999999999999929e+01,1.185235547085948526e-02
1.555000000000000071e+01,1.331725333804435751e-02
1.565000000000000036e+01,1.270687927066427650e-02
1.575000000000000000e+01,1.337274193756649195e-02
1.584999999999999964e+01,1.544801387213144347e-02
1.594999999999999929e+01,1.390543207108826257e-02
1.605000000000000071e+01,1.358359840480524196e-02
1.614999999999999858e+01,1.441592687027385897e-02
1.625000000000000000e+01,1.092014773719638364e-02
1.635000000000000142e+01,1.491532373860967112e-02
1.644999999999999929e+01,1.438633281948691056e-02
1.655000000000000071e+01,1.185235547085948526e-02
1.664999999999999858e+01,1.337274193756649195e-02
1.675000000000000000e+01,1.065750188483450753e-02
1.685000000000000142e+01,1.305090827128346960e-02
1.694999999999999929e+01,1.598070400565321583e-02
1.705000000000000071e+01,1.398311600494657296e-02
1.714999999999999858e+01,1.323956940418604886e-02
1.725000000000000000e+01,1.297322433742516268e-02
1.735000000000000142e+01,1.257740595168284348e-02
1.744999999999999929e+01,1.238504560438125589e-02
1.755000000000000071e+01,1.198922721863893669e-02
1.764999999999999858e+01,1.276606708458541753e-02
1.775000000000000000e+01,1.265139067114214380e-02
1.785000000000000142e+01,1.198552800423992835e-02
1.794999999999999929e+01,1.470816648576992770e-02
1.805000000000000071e+01,1.030977366981630262e-02
1.814999999999999858e+01,9.244393402772761378e-03
1.825000000000000000e+01,1.265139067114214380e-02
1.835000000000000142e+01,1.084246380333807672e-02
1.844999999999999929e+01,1.217418913714250588e-02
1.855000000000000071e+01,1.231106088492195383e-02
1.864999999999999858e+01,1.492364701894956930e-02
1.875000000000000000e+01,1.158601040409859909e-02
1.885000000000000142e+01,1.092014773719638364e-02
1.894999999999999929e+01,1.217788835154151421e-02
1.905000000000000071e+01,1.070929126995763363e-02
1.914999999999999858e+01,9.033536935534007897e-03
1.925000000000000000e+01,1.119019201835627988e-02
1.935000000000000142e+01,1.185605468525849533e-02
1.944999999999999929e+01,1.172658136627706058e-02
1.955000000000000071e+01,9.854767470152842393e-03
1.964999999999999858e+01,1.065750188483450753e-02
1.975000000000000000e+01,9.991639217932292080e-03
1.985000000000000142e+01,1.185605468525849533e-02
1.994999999999999929e+01,8.659913884127862921e-03
2.005000000000000071e+01,1.196333266990375066e-02
2.014999999999999858e+01,9.854767470152842393e-03
2.025000000000000000e+01,1.092384695159539544e-02
2.035000000000000142e+01,1.230736167052294897e-02
2.044999999999999929e+01,1.211870053762036971e-02
2.055000000000000071e+01,8.656214669728852854e-03
2.064999999999999858e+01,1.105332027057682846e-02
2.075000000000000000e+01,1.097933555111752467e-02
2.085000000000000142e+01,8.315884883508661146e-03
2.094999999999999929e+01,8.256697069587520116e-03
2.105000000000000071e+01,1.145283787071815600e-02
2.114999999999999858e+01,9.377565936153204468e-03
2.125000000000000000e+01,9.055732269870185591e-03
2.135000000000000142e+01,1.025798428469317999e-02
2.144999999999999929e+01,9.200002446447653678e-03
2.155000000000000071e+01,9.188904803250626946e-03
2.164999999999999858e+01,1.138255236565786400e-02
2.175000000000000000e+01,1.030977366981630262e-02
2.185000000000000142e+01,9.455249870011511390e-03
2.194999999999999929e+01,9.114920083791326622e-03
2.205000000000000071e+01,1.092384695159539544e-02
2.214999999999999858e+01,8.793086417508304276e-03
2.225000000000000000e+01,1.012851096571174697e-02
2.235000000000000142e+01,1.104740155949982851e-02
2.244999999999999929e+01,7.328188550323423353e-03
2.255000000000000071e+01,9.188904803250626946e-03
2.264999999999999858e+01,9.111220869392316554e-03
2.275000000000000000e+01,7.779495535587877854e-03
2.285000000000000142e+01,8.389869602967964940e-03
2.294999999999999929e+01,7.857179469446190848e-03
2.305000000000000071e+01,9.188904803250626946e-03
2.314999999999999858e+01,7.779495535587877854e-03
2.325000000000000000e+01,8.123524536207077026e-03
2.335000000000000142e+01,7.191316802543971064e-03
2.344999999999999929e+01,8.959552216074704103e-03
2.355000000000000071e+01,1.044294620319674571e-02
2.364999999999999858e+01,9.033536935534007897e-03
2.375000000000000000e+01,9.038161001474892542e-03
2.385000000000000142e+01,7.590834402685301199e-03
2.394999999999999929e+01,8.656461284022119035e-03
2.405000000000000071e+01,7.650022216606442230e-03
2.414999999999999858e+01,8.449057416889105970e-03
2.425000000000000000e+01,6.658626669022194369e-03
2.435000000000000142e+01,5.593246401978643582e-03
2.444999999999999929e+01,8.312185669109654548e-03
2.455000000000000071e+01,5.726418935359086672e-03
2.464999999999999858e+01,7.191316802543971064e-03
2.475000000000000000e+01,6.451469416182447486e-03
2.485000000000000142e+01,6.525454135641751280e-03
2.494999999999999929e+01,6.392281602261306456e-03
2.505000000000000071e+01,8.312185669109654548e-03
2.514999999999999858e+01,6.847287801924770156e-03
2.525000000000000000e+01,8.123524536207077026e-03
2.535000000000000142e+01,8.656214669728852854e-03
2.544999999999999929e+01,7.457661869304858977e-03
2.555000000000000071e+01,7.990352002826635672e-03
2.564999999999999858e+01,7.727706150464755223e-03
2.575000000000000000e+01,7.195016016942978529e-03
2.585000000000000142e+01,5.996463216518983785e-03
2.594999999999999929e+01,7.061843483562535440e-03
2.605000000000000071e+01,5.460073868598199626e-03
2.614999999999999858e+01,5.730118149758096739e-03
2.625000000000000000e+01,6.924971735783082283e-03
2.635000000000000142e+01,6.980460335305214981e-03
2.644999999999999929e+01,5.730118149758096739e-03
2.655000000000000071e+01,6.791799202402638326e-03
2.664999999999999858e+01,5.463773082997207958e-03
2.675000000000000000e+01,7.192241654085846508e-03
2.685000000000000142e+01,6.525454135641751280e-03
2.694999999999999929e+01,5.649659853042652592e-03
2.705000000000000071e+01,5.726418935359086672e-03
2.714999999999999858e+01,5.596945616377651915e-03
2.725000000000000000e+01,4.398392815953656304e-03
2.735000000000000142e+01,8.045840602348766635e-03
2.744999999999999929e+01,4.450182201076781537e-03
2.755000000000000071e+01,6.529153350040758745e-03
2.764999999999999858e+01,5.596945616377651915e-03
2.775000000000000000e+01,6.658626669022194369e-03
2.785000000000000142e+01,5.515562468120332323e-03
2.794999999999999929e+01,6.447770201783440021e-03
2.805000000000000071e+01,6.980460335305214981e-03
2.814999999999999858e+01,5.193728801837311712e-03
2.825000000000000000e+01,6.392281602261306456e-03
2.835000000000000142e+01,6.321996097201012729e-03
2.844999999999999929e+01,5.515562468120332323e-03
2.855000000000000071e+01,5.992764002119974585e-03
2.864999999999999858e+01,5.859591468739531496e-03
2.875000000000000000e+01,5.460073868598199626e-03
2.885000000000000142e+01,4.982872334598556496e-03
2.894999999999999929e+01,4.927383735076423799e-03
2.905000000000000071e+01,5.866989897537549029e-03
2.914999999999999858e+01,5.326901335217754802e-03
2.925000000000000000e+01,5.193728801837311712e-03
2.935000000000000142e+01,4.664737882714545085e-03
2.944999999999999929e+01,5.193728801837311712e-03
2.955000000000000071e+01,6.392281602261306456e-03
2.964999999999999858e+01,5.730118149758096739e-03
2.975000000000000000e+01,4.317009667696336712e-03
2.985000000000000142e+01,5.460073868598199626e-03
2.994999999999999929e+01,4.527866134935092796e-03
3.005000000000000071e+01,4.265220282573212347e-03
3.014999999999999858e+01,3.784319534174561753e-03
3.025000000000000000e+01,3.466185082290549474e-03
3.035000000000000142e+01,4.661038668315535018e-03
3.044999999999999929e+01,5.781907534881220237e-03
3.055000000000000071e+01,3.862003468032873012e-03
3.064999999999999858e+01,3.595658401271985098e-03
3.075000000000000000e+01,5.859591468739531496e-03
3.085000000000000142e+01,3.462485867891540274e-03
3.094999999999999929e+01,5.992764002119974585e-03
3.105000000000000071e+01,3.196140801130652794e-03
3.114999999999999858e+01,3.070366696548226370e-03
3.125000000000000000e+01,5.726418935359086672e-03
3.135000000000000142e+01,2.663450667608876967e-03
3.144999999999999929e+01,3.732530149051436954e-03
3.155000000000000071e+01,4.664737882714545085e-03
3.164999999999999858e+01,3.595658401271985098e-03
3.175000000000000000e+01,4.982872334598556496e-03
3.185000000000000142e+01,3.329313334511096751e-03
3.194999999999999929e+01,2.796623200989321358e-03
3.204999999999999716e+01,2.929795734369764881e-03
3.214999999999999858e+01,4.535264563733109461e-03
3.225000000000000000e+01,4.128348534793760058e-03
3.235000000000000142e+01,3.462485867891540274e-03
3.245000000000000284e+01,3.862003468032873012e-03
3.254999999999999716e+01,3.462485867891540274e-03
3.264999999999999858e+01,4.317009667696336712e-03
3.275000000000000000e+01,3.466185082290549474e-03
3.285000000000000142e+01,2.929795734369764881e-03
3.295000000000000284e+01,3.728830934652428621e-03
3.304999999999999716e+01,2.530278134228433444e-03
3.314999999999999858e+01,3.917492067555006577e-03
3.325000000000000000e+01,2.130760534087101574e-03
3.335000000000000142e+01,2.796623200989321358e-03
3.345000000000000284e+01,2.530278134228433444e-03
3.354999999999999716e+01,2.929795734369764881e-03
3.364999999999999858e+01,2.530278134228433444e-03
3.375000000000000000e+01,3.466185082290549474e-03
3.385000000000000142e+01,2.929795734369764881e-03
3.395000000000000284e+01,3.196140801130652794e-03
3.404999999999999716e+01,4.183837134315893623e-03
3.414999999999999858e+01,2.804021629787338456e-03
3.425000000000000000e+01,2.929795734369764881e-03
3.435000000000000142e+01,2.933494948768773647e-03
3.445000000000000284e+01,3.329313334511096751e-03
3.454999999999999716e+01,3.728830934652428621e-03
3.464999999999999858e+01,3.728830934652428621e-03
3.475000000000000000e+01,3.334553888243025656e-03
3.485000000000000142e+01,3.329313334511096751e-03
3.495000000000000284e+01,2.667149882007886167e-03
3.504999999999999716e+01,1.786731533467903052e-03
3.514999999999999858e+01,1.997588000706658051e-03
3.525000000000000000e+01,1.997588000706658051e-03
3.535000000000000142e+01,1.331725333804438050e-03
3.545000000000000284e+01,2.397105600847989487e-03
3.554999999999999716e+01,2.511782014291264950e-03
3.564999999999999858e+01,2.397105600847989487e-03
3.575000000000000000e+01,1.198552800423994093e-03
3.585000000000000142e+01,2.663450667608876967e-03
3.595000000000000284e+01,1.520386466707015138e-03
3.604999999999999716e+01,1.731242933945769703e-03
3.614999999999999858e+01,1.864415467326213877e-03
3.625000000000000000e+01,1.997588000706658051e-03
3.635000000000000142e+01,3.517974467413673405e-03
3.645000000000000284e+01,2.130760534087101574e-03
3.654999999999999716e+01,1.864415467326213877e-03
3.664999999999999858e+01,1.065380267043550353e-03
3.675000000000000000e+01,1.864415467326213877e-03
3.685000000000000142e+01,6.658626669022190249e-04
3.695000000000000284e+01,2.663450667608876967e-03
3.704999999999999716e+01,1.997588000706658051e-03
3.714999999999999858e+01,9.322077336631065048e-04
3.725000000000000000e+01,1.864415467326213877e-03
3.735000000000000142e+01,1.254041399946127441e-03
3.745000000000000284e+01,1.198552800423994093e-03
3.754999999999999716e+01,1.198552800423994093e-03
3.764999999999999858e+01,6.658626669022190249e-04
3.775000000000000000e+01,1.198552800423994093e-03
3.785000000000000142e+01,1.598070400565325747e-03
3.795000000000000284e+01,1.198552800423994093e-03
3.804999999999999716e+01,1.254041399946127441e-03
3.814999999999999858e+01,1.464897867184882007e-03
3.825000000000000000e+01,1.065380267043550353e-03
3.835000000000000142e+01,1.331725333804438050e-03
3.845000000000000284e+01,1.065380267043550353e-03
3.854999999999999716e+01,1.468597081583890556e-03
3.864999999999999858e+01,2.130760534087101574e-03
3.875000000000000000e+01,1.065380267043550353e-03
3.885000000000000142e+01,7.990352002826627649e-04
3.895000000000000284e+01,9.322077336631065048e-04
3.904999999999999716e+01,5.363893479207837260e-04
3.914999999999999858e+01,3.995176001413313824e-04
3.925000000000000000e+01,0.000000000000000000e+00
3.935000000000000142e+01,5.326901335217751766e-04
3.945000000000000284e+01,3.995176001413313824e-04
3.954999999999999716e+01,3.995176001413313824e-04
3.964999999999999858e+01,1.331725333804437941e-04
3.975000000000000000e+01,1.331725333804437941e-04
3.985000000000000142e+01,2.663450667608875883e-04
3.995000000000000284e+01,3.995176001413313824e-04
