9.955654101995567;6.044585987261147
10.770509977827052;5.942675159235671
11.74057649667406;5.815286624203823
12.633037694013304;5.662420382165607
13.60310421286031;5.45859872611465
14.223946784922395;5.305732484076433
15.15521064301552;5.152866242038218
15.853658536585366;4.949044585987263
16.62971175166297;4.694267515923567
17.172949002217294;4.515923566878984
17.87139689578714;4.3121019108280265
18.608647450110865;4.108280254777071
19.42350332594235;3.9299363057324825
19.966740576496676;3.802547770700638
20.74279379157428;3.6496815286624233
21.441241685144124;3.5222929936305754
22.139689578713966;3.3439490445859867
22.838137472283815;3.242038216560509
23.536585365853657;3.0891719745222943
24.39024390243902;2.9872611464968166
24.855875831485587;2.885350318471339
25.787139689578712;2.7324840764331206
26.485587583148558;2.6050955414012726
27.88248337028825;2.426751592356691
28.65853658536585;2.299363057324843
29.473392461197335;2.171974522292995
30.365853658536583;2.095541401273884
27.1840354767184;2.528662420382169
30.909090909090907;2.019108280254777
31.52993348115299;1.9426751592356695
32.38359201773835;1.866242038216562
33.31485587583148;1.7898089171974547
34.12971175166297;1.7006369426751604
35.17738359201773;1.6369426751592364
36.18625277161862;1.560509554140129
37.03991130820399;1.5095541401273884
37.77716186252771;1.4585987261146514
38.592017738359196;1.433121019108281
39.212860310421284;1.3821656050955404
39.833702882483365;1.3566878980891737
40.68736141906873;1.3312101910828034
41.69623059866962;1.2802547770700627
42.62749445676275;1.2292993630573257
43.40354767184035;1.203821656050959
44.06319290465631;1.1656050955414017
44.8780487804878;1.127388535031848
45.77050997782705;1.1019108280254777
46.74057649667405;1.076433121019111
47.55543237250554;1.0382165605095572
48.4090909090909;1
49.22394678492239;0.9745222929936332
49.84478935698448;0.9490445859872629
50;4.222929936305732
50.38802660753879;4.337579617834397
51.00886917960088;4.414012738853504
51.74611973392461;4.401273885350321
52.56097560975609;4.3121019108280265
53.259423503325934;4.210191082802549
54.19068736141906;4.108280254777071
54.96674057649667;4.0063694267515935
55.58758314855875;3.9299363057324825
56.20842572062083;3.8280254777070084
56.75166297117516;3.751592356687901
57.45011086474501;3.6496815286624233
58.070953436807095;3.560509554140129
58.76940133037693;3.4585987261146514
59.54545454545454;3.369426751592357
