10.089086859688209;5.641025641025642
10.517817371937646;5.5256410256410255
10.868596881959917;5.410256410256411
11.375278396436535;5.243589743589746
11.881959910913146;5.051282051282053
12.34966592427618;4.820512820512821
12.817371937639201;4.666666666666666
13.285077951002236;4.5128205128205146
13.596881959910917;4.384615384615387
13.986636971046778;4.2435897435897445
14.337416481069042;4.115384615384617
14.727171492204903;4
15.233853006681514;3.820512820512821
15.662583518930958;3.6923076923076934
16.32516703786193;3.5128205128205146
16.94877505567929;3.3076923076923066
17.455456570155917;3.1666666666666643
18.157015590200444;3.0128205128205146
18.897550111358584;2.820512820512821
19.67706013363029;2.6923076923076934
20.456570155902014;2.564102564102562
21.08017817371939;2.4615384615384635
21.547884187082417;2.384615384615387
22.249443207126944;2.30769230769231
22.795100222717153;2.2051282051282044
23.496659242761694;2.1282051282051277
24.12026726057907;2.0256410256410255
24.899777282850792;1.9230769230769234
25.601336302895334;1.8461538461538467
26.45879732739421;1.7435897435897445
27.16035634743875;1.6666666666666679
27.82293986636971;1.6025641025641022
28.71937639198218;1.5256410256410255
29.498886414253903;1.4615384615384635
30.20044543429843;1.3846153846153832
30.902004454342986;1.3589743589743577
31.603563474387528;1.2564102564102555
32.266146993318486;1.23076923076923
32.928730512249444;1.2051282051282044
33.630289532293986;1.1538461538461569
34.17594654788418;1.1282051282051313
34.799554565701555;1.0897435897435912
35.42316258351893;1.051282051282051
36.163697104677055;1.0128205128205146
36.74832962138085;0.9615384615384635
37.410913140311806;0.9358974358974379
38.073496659242764;0.9230769230769234
38.697104677060125;0.9102564102564124
39.3207126948775;0.8846153846153868
39.86636971046771;0.8589743589743613
40.48997772828508;0.8461538461538467
41.03563474387528;0.8461538461538467
41.581291759465486;0.8205128205128212
42.12694877505568;0.7948717948717956
42.75055679287304;0.76923076923077
43.29621380846325;0.76923076923077
43.841870824053444;0.76923076923077
44.543429844097986;0.7435897435897445
45.12806236080178;0.717948717948719
45.673719376391986;0.717948717948719
46.336302895322945;0.717948717948719
46.959910913140305;0.6923076923076934
47.58351893095768;0.6923076923076934
48.129175946547875;0.6666666666666679
48.5968819599109;0.6410256410256423
49.064587973273944;0.6410256410256423
49.53229398663697;0.6153846153846168
49.92204899777283;0.5897435897435912
50.15590200445435;2.820512820512821
50.70155902004453;2.9230769230769234
51.247216035634736;2.9743589743589745
51.714922048997764;2.948717948717949
52.33853006681514;2.9230769230769234
52.88418708240535;2.8717948717948723
53.42984409799554;2.820512820512821
53.97550111358575;2.7948717948717956
54.599109131403125;2.717948717948719
55.144766146993305;2.6410256410256423
55.84632516703785;2.589743589743591
56.391982182628055;2.5256410256410255
57.01559020044543;2.4743589743589745
57.561247216035625;2.4102564102564124
58.02895322939867;2.3717948717948723
58.65256124721604;2.30769230769231
59.19821826280622;2.256410256410259
